…
```{r echo = FALSE, out.width = "100%"}
knitr::include_graphics("diagrams/list-column.png")
```
Anything can go in a list & a list can go in a data frame

sf (successor to sp) uses list-cols

```
nc <- sf::st_read(system.file("shape/nc.shp", package = "sf"))
nc %>%
 as_tibble() %>%
 select(NAME, FIPS, AREA, geometry)
#> # A tibble: 100 × 4
#> NAME FIPS AREA geometry
#> <fctr> <fctr> <dbl> <simple_feature>
#> 1 Ashe 37009 0.114 <MULTIPOLYGON...>
#> 2 Alleghany 37005 0.061 <MULTIPOLYGON...>
#> 3 Surry 37171 0.143 <MULTIPOLYGON...>
#> 4 Currituck 37053 0.070 <MULTIPOLYGON...>
#> 5 Northampton 37131 0.153 <MULTIPOLYGON...>
#> 6 Hertford 37091 0.097 <MULTIPOLYGON...>
#> 7 Camden 37029 0.062 <MULTIPOLYGON...>
#> 8 Gates 37073 0.091 <MULTIPOLYGON...>
#> 9 Warren 37185 0.118 <MULTIPOLYGON...>
#> 10 Stokes 37169 0.124 <MULTIPOLYGON...>
#> # ... with 90 more rows
```
…
